…
bigram_counts_separated <- bigrams %>%
  select(bigram) %>%
  separate(bigram, c("word1", "word2"), sep = " ") %>%
  filter(!word1 %in% stop_words$word, 
         !word2 %in% stop_words$word) %>%
  count(word1, word2, sort = TRUE)

bigram_counts_separated %>% 
  filter(str_detect(word1, "linked_data" ) | str_detect(word2, "linked_data"))
```

```
## # A tibble: 22 x 3
##          word1       word2     n
##          <chr>       <chr> <int>
##  1 linked_data environment     2
##  2 linked_data       users     2
##  3   pervasive linked_data     2
##  4      austen linked_data     1
##  5      enable linked_data     1
##  6  government linked_data     1
##  7    leverage linked_data     1
##  8  leveraging linked_data     1
##  9 linked_data     applied     1
## 10 linked_data       based     1
## # ... with 12 more rows
```

```r
bigram_counts_separated
```

```
## # A tibble: 929 x 3
##        word1       word2     n
##        <chr>       <chr> <int>
##  1    linked        data    15
##  2   library       users    11
##  3   library collections     8
##  4    search     engines     7
##  5    search     results     5
##  6   special collections     5
##  7 authority     records     4
##  8 knowledge       graph     4
##  9    linked        jazz     4
## 10   subject    headings     4
## # ... with 919 more rows
```
…
