eda5 - Word co-ocurrences
…
df_ld_features <- df_ld_features %>%
  unnest_tokens(word, passage)

df_ld_features <- df_ld_features %>%
  anti_join(stop_words)

## Joining, by = "word"

df_ld_features %>%
  count(word, sort = TRUE)

## # A tibble: 1,102 x 2
##           word     n
##          <chr> <int>
##  1 linked_data    61
##  2     library    57
##  3       users    53
##  4      search    41
##  5 information    39
##  6 collections    31
##  7        data    24
##  8    metadata    19
##  9    research    19
## 10   resources    18
## # ... with 1,092 more rows

feature_word_pairs <- df_ld_features %>%
  pairwise_count(word, id, sort = TRUE, upper = FALSE)

Co-occurrence (word pair) plots

set.seed(1234)

feature_word_pairs

## # A tibble: 38,656 x 3
##          item1       item2     n
##          <chr>       <chr> <dbl>
##  1 linked_data     library    17
##  2 linked_data       users    17
##  3      search     library    15
##  4     library       users    15
##  5      search linked_data    13
##  6     library information    13
##  7       users        data    13
##  8 linked_data information    12
##  9       users information    12
## 10 linked_data collections    11
## # ... with 38,646 more rows
…
