…
df_ld_features <- df_ld_features %>%
  anti_join(stop_words)
```

```
## Joining, by = "word"
```

```r
df_ld_features %>%
  count(word, sort = TRUE)
```

```
## # A tibble: 1,101 x 2
##           word     n
##          <chr> <int>
##  1   libraries    65
##  2       users    65
##  3 linked_data    61
##  4      search    41
##  5 information    39
##  6 collections    34
##  7        data    24
##  8   resources    23
##  9    metadata    19
## 10    research    19
## # ... with 1,091 more rows
```
…
# Co-occurrence (word pair) plots


```r
set.seed(1234)

feature_word_pairs
```

```
## # A tibble: 38,287 x 3
##          item1       item2     n
##          <chr>       <chr> <dbl>
##  1   libraries       users    22
##  2 linked_data       users    20
##  3 linked_data   libraries    17
##  4       users        data    17
##  5      search   libraries    15
##  6       users collections    14
##  7       users information    14
##  8      search linked_data    13
##  9      search       users    13
## 10   libraries collections    13
## # ... with 38,277 more rows
```
…
