…
bigram_counts_separated <- bigrams %>%
  select(bigram) %>%
  separate(bigram, c("word1", "word2"), sep = " ") %>%
#  filter(!word1 %in% stop_words$word, 
#         !word2 %in% stop_words$word) %>%
  count(word1, word2, sort = TRUE)

bigram_counts_separated %>% 
  filter(str_detect(word1, "linked_data" ) | str_detect(word2, "linked_data"))
```

```
## # A tibble: 74 x 3
##          word1       word2     n
##          <chr>       <chr> <int>
##  1          of linked_data     8
##  2 linked_data         can     5
##  3          as linked_data     4
##  4 linked_data          to     4
##  5       using linked_data     4
##  6 linked_data       could     3
##  7 linked_data          is     3
##  8         the linked_data     3
##  9         use linked_data     3
## 10           a linked_data     2
## # ... with 64 more rows
```

```r
bigram_counts_separated
```

```
## # A tibble: 4,157 x 3
##        word1 word2     n
##        <chr> <chr> <int>
##  1        in   the    20
##  2      able    to    19
##  3        be  able    18
##  4        in     a    15
##  5 libraries users    13
##  6      such    as    13
##  7     users  will    13
##  8        of   the    12
##  9        to   the    12
## 10     users    to    12
## # ... with 4,147 more rows
```
…
